…
data
```

    ## Simple feature collection with 159 features and 24 fields
    ## Geometry type: POINT
    ## Dimension:     XY
    ## Bounding box:  xmin: -6.309277 ymin: 49.91306 xmax: 1.717994 ymax: 55.07407
    ## Geodetic CRS:  WGS 84
    ## # A tibble: 159 x 25
    ##    search_score organisation_id organisation_name     organisation_ty~ nacs_code
    ##           <dbl> <chr>           <chr>                 <chr>            <chr>    
    ##  1            1 40719           Addenbrooke's         Hospital         RGT01    
    ##  2            1 40481           Aintree University H~ Hospital         REM21    
    ##  3            1 40270           Airedale General Hos~ Hospital         RCF22    
    ##  4            1 40195           Alder Hey Children's~ Hospital         RBS25    
    ##  5            1 42750           Alexandra Hospital    Hospital         RWP01    
    ##  6            1 72361           Barnet Hospital       Hospital         RAL26    
    ##  7            1 40570           Barnsley Hospital     Hospital         RFFAA    
    ##  8            1 40337           Basildon University ~ Hospital         RDDH0    
    ##  9            1 41260           Basingstoke and Nort~ Hospital         RN506    
    ## 10            1 41405           Bassetlaw Hospital    Hospital         RP5BA    
    ## # ... with 149 more rows, and 20 more variables: summary_text <chr>, url <chr>,
    ## #   address2 <chr>, city <chr>, county <chr>, organisation_sub_type <chr>,
    ## #   last_updated_date <chr>, postcode <chr>, services_provided <list>,
    ## #   service_codes_provided <list>, services_provided_conditions <list>,
    ## #   org_type_conditions <list>, contacts <list>, metrics <list>,
    ## #   opening_times <list>, organisation_aliases <list>, address1 <chr>,
    ## #   address3 <chr>, related_iaptcc_gs <list>, geometry <POINT [°]>
…
