…
  NHSRtools::ods_get_ccgs() |>
    select(name, org_id, last_change_date, status) |>
    filter(str_detect(name, "^NHS .* (CCG|ICB - [A-Z0-9]{3,5})$")) |>
    rows_update(ccgs_21, by = "org_id")
})

ccgs
```

    ## # A tibble: 248 × 4
    ##    name                                                    org_id last_…¹ status
    ##    <chr>                                                   <chr>  <chr>   <chr> 
    ##  1 NHS AIREDALE, WHARFEDALE AND CRAVEN CCG                 02N    2021-0… Inact…
    ##  2 NHS ASHFORD CCG                                         09C    2021-0… Inact…
    ##  3 NHS AYLESBURY VALE CCG                                  10Y    2021-0… Inact…
    ##  4 NHS BARKING AND DAGENHAM CCG                            07L    2022-0… Inact…
    ##  5 NHS BARNET CCG                                          07M    2021-0… Inact…
    ##  6 NHS BATH AND NORTH EAST SOMERSET CCG                    11E    2021-0… Inact…
    ##  7 NHS Bath and North East Somerset, Swindon and Wiltshir… 92G    2022-0… Active
    ##  8 NHS BEDFORDSHIRE CCG                                    06F    2022-0… Inact…
    ##  9 NHS Bedfordshire, Luton and Milton Keynes CCG           M1J4Y  2022-0… Active
    ## 10 NHS BEXLEY CCG                                          07N    2021-0… Inact…
    ## # … with 238 more rows, and abbreviated variable name ¹​last_change_date
    ## # ℹ Use `print(n = ...)` to see more rows
…
``` r
ccg_successors <- NHSRtools::ods_get_successors() |>
  semi_join(ccgs, by = c("old_code" = "org_id")) |>
  select(old_code, new_code, effective_date)

ccg_successors
```

    ## # A tibble: 142 × 3
    ##    old_code new_code effective_date
    ##    <chr>    <chr>    <date>        
    ##  1 03A      X2C4Y    2021-04-01    
    ##  2 03J      X2C4Y    2021-04-01    
    ##  3 04F      M1J4Y    2021-04-01    
    ##  4 05A      B2M3M    2021-04-01    
    ##  5 05C      D2P2L    2021-04-01    
    ##  6 05H      B2M3M    2021-04-01    
    ##  7 05L      D2P2L    2021-04-01    
    ##  8 05N      M2L0M    2021-04-01    
    ##  9 05R      B2M3M    2021-04-01    
    ## 10 05X      M2L0M    2021-04-01    
    ## # … with 132 more rows
    ## # ℹ Use `print(n = ...)` to see more rows
…
## Getting a tibble of the mergers

It just remains to see how we can get out a tibble of the mergers. We
can take advantage of `{tidygraph}` by activating the vertices and
running `as_tibble()` to get the data as a tibble that we can easily
work with.

``` r
g |>
  activate(nodes) |>
  as_tibble()
```

    ## # A tibble: 248 × 6
    ##    name  ccg_description                    status active_f…¹ active_to  curre…²
    ##    <chr> <chr>                              <chr>  <date>     <date>     <chr>  
    ##  1 02N   NHS AIREDALE, WHARFEDALE AND CRAV… Inact… 2013-04-01 2020-03-31 36J    
    ##  2 09C   NHS ASHFORD CCG                    Inact… 2013-04-01 2020-03-31 91Q    
    ##  3 10Y   NHS AYLESBURY VALE CCG             Inact… 2013-04-01 2018-03-31 14Y    
    ##  4 07L   NHS BARKING AND DAGENHAM CCG       Inact… 2013-04-01 2021-03-31 A3A8R  
    ##  5 07M   NHS BARNET CCG                     Inact… 2013-04-01 2020-03-31 93C    
    ##  6 11E   NHS BATH AND NORTH EAST SOMERSET … Inact… 2013-04-01 2020-03-31 92G    
    ##  7 92G   NHS Bath and North East Somerset,… Active 2020-04-01 NA         92G    
    ##  8 06F   NHS BEDFORDSHIRE CCG               Inact… 2013-04-01 2021-03-31 M1J4Y  
    ##  9 M1J4Y NHS Bedfordshire, Luton and Milto… Active 2021-04-01 NA         M1J4Y  
    ## 10 07N   NHS BEXLEY CCG                     Inact… 2013-04-01 2020-03-31 72Q    
    ## # … with 238 more rows, and abbreviated variable names ¹​active_from,
    ## #   ²​current_ccg
    ## # ℹ Use `print(n = ...)` to see more rows
…
